{
  "project_info": {
    "project_number": "664743239643",
    "firebase_url": "https://play-whenever.firebaseio.com",
    "project_id": "play-whenever",
    "storage_bucket": "play-whenever.appspot.com"
  },
  "client": [
    {
      "client_info": {
        "mobilesdk_app_id": "1:664743239643:android:691e441e713654f1",
        "android_client_info": {
          "package_name": "com.radoslav.playwhenever2"
        }
      },
      "oauth_client": [
        {
          "client_id": "664743239643-551l30mr0lhkks6jg2m8l0l22lnj28rn.apps.googleusercontent.com",
          "client_type": 1,
          "android_info": {
            "package_name": "com.radoslav.playwhenever2",
            "certificate_hash": "2821b250fa82af4cd81f6bcd843ae048a3f269c9"
          }
        },
        {
          "client_id": "664743239643-fr8aaja8p1bfvg8cscfau0v7eir82ulu.apps.googleusercontent.com",
          "client_type": 1,
          "android_info": {
            "package_name": "com.radoslav.playwhenever2",
            "certificate_hash": "499cf8cb6378c99af674bf6252ce8f81f8f6f04b"
          }
        },
        {
          "client_id": "664743239643-rjo64n5054188v312im71iccujbgqc2n.apps.googleusercontent.com",
          "client_type": 3
        }
      ],
      "api_key": [
        {
          "current_key": "AIzaSyBnYude65x4sC9WVGYFZUoH83mHOqugTw4"
        }
      ],
      "services": {
        "analytics_service": {
          "status": 1
        },
        "appinvite_service": {
          "status": 2,
          "other_platform_oauth_client": [
            {
              "client_id": "664743239643-rjo64n5054188v312im71iccujbgqc2n.apps.googleusercontent.com",
              "client_type": 3
            }
          ]
        },
        "ads_service": {
          "status": 2
        }
      }
    }
  ],
  "configuration_version": "1"
}